…
``` r
dep <- read_dta("G:/My Drive/Programming/Data Science/DATA SETS/NHANES/NHANES 2017-March 2020/depression.dta")
```

``` r
dim(dep)
```

    ## [1] 8965   11

``` r
tail(dep,100)
```

    ## # A tibble: 100 × 11
    ##      seqn dpq010 dpq020 dpq030 dpq040 dpq050 dpq060 dpq070 dpq080 dpq090 dpq100
    ##     <dbl>  <dbl>  <dbl>  <dbl>  <dbl>  <dbl>  <dbl>  <dbl>  <dbl>  <dbl>  <dbl>
    ##  1 124663      1      1      0      1      0      0      0      0      0      0
    ##  2 124665      0      0      0      0      0      0      0      0      0     NA
    ##  3 124667      0      0      0      0      0      0      0      0      0     NA
    ##  4 124668      0      0      0      0      0      0      0      0      0     NA
    ##  5 124670      0      0      0      0      0      0      0      0      0     NA
    ##  6 124671      0      0      1      0      0      0      0      0      0      0
    ##  7 124676      0      0      0      1      0      0      0      0      0      0
    ##  8 124683      0      0      0      0      0      0      0      0      0     NA
    ##  9 124684      1      0      1      1      0      0      0      0      0      1
    ## 10 124685      1      1      3      1      1      1      1      0      0      2
    ## # ℹ 90 more rows
…
``` r
ols_fitstats <- ols_fit %>%
  extract_fit_parsnip()

head(ols_fitstats$fit$fitted.values)
```

    ##        1        2        3        4        5        6 
    ## 1.986387 2.591858 3.968830 1.680077 2.095856 4.814690

``` r
predict(ols_fit, new_data = test_nhanes)
```

    ## # A tibble: 1,379 × 1
    ##    .pred
    ##    <dbl>
    ##  1 3.41 
    ##  2 4.31 
    ##  3 3.13 
    ##  4 3.78 
    ##  5 3.23 
    ##  6 2.50 
    ##  7 2.04 
    ##  8 0.351
    ##  9 1.62 
    ## 10 3.47 
    ## # ℹ 1,369 more rows

Get more information on the prediction/evaluation performance:

``` r
ols_fitted_values <- augment(ols_fitstats$fit, data = prepped_train)
```

``` r
some_columns <- ols_fitted_values[, c("dep_score", ".fitted", ".std.resid")]
some_columns
```

    ## # A tibble: 4,135 × 3
    ##    dep_score .fitted .std.resid
    ##        <dbl>   <dbl>      <dbl>
    ##  1         0    1.99    -0.496 
    ##  2         2    2.59    -0.148 
    ##  3         7    3.97     0.759 
    ##  4         0    1.68    -0.420 
    ##  5         1    2.10    -0.274 
    ##  6         6    4.81     0.296 
    ##  7        11    4.45     1.64  
    ##  8         4    4.91    -0.227 
    ##  9         4    4.34    -0.0844
    ## 10         0    2.09    -0.522 
    ## # ℹ 4,125 more rows
…
